Statistics for International Relations Research II
…
Panel/TSCS treated in one of two formats: long vs wide.
Long format is often preferred as more efficient and flexible.

.pull-left[

.red[Long data] has `\(NT\)` rows, with columns for each variable.
.tiny[

```r
data1 %>% tbl_df %>% select(idn, year, sstran, rgdpecap, leftvot) %>% 
  print(n=5)
```

```
## # A tibble: 859 x 5
##   idn    year sstran     rgdpecap leftvot   
##   <fct> <dbl> <labelled>    <dbl> <labelled>
## 1 1      1980 6.364682     21955. 40.5      
## 2 1      1981 6.353022     22753. 45.1      
## 3 1      1982 7.232827     21889. 45.1      
## 4 1      1983 7.439353     22836. 48.8      
## 5 1      1984 7.268586     23339. 49.3      
## # … with 854 more rows
```
…
.pull-right[

.red[Wide data] has `\(N\)` rows and additional columns for each variable multiplied by `\(T\)`.

```r
data1 %>% tbl_df %>% select(idn, year, sstran, rgdpecap, leftvot) %>%
* pivot_wider(names_from = year,
*             values_from = c(sstran, rgdpecap, leftvot)) %>%
  print(n=3)
```

```
## # A tibble: 22 x 121
##   idn   sstran_1980 sstran_1981 sstran_1982 sstran_1983 sstran_1984 sstran_1985
##   <fct> <labelled>  <labelled>  <labelled>  <labelled>  <labelled>  <labelled> 
## 1 1      6.364682    6.353022    7.232827    7.439353    7.268586    7.041956  
## 2 2     16.370188   16.818114   17.164325   17.293337   17.458069   17.804682  
## 3 3     16.807869   18.029742   18.236084   18.825784   18.163483   17.828126  
## # … with 19 more rows, and 114 more variables: sstran_1986 <labelled>,
## #   sstran_1987 <labelled>, sstran_1988 <labelled>, sstran_1989 <labelled>,
## #   sstran_1990 <labelled>, sstran_1991 <labelled>, sstran_1992 <labelled>,
## #   sstran_1993 <labelled>, sstran_1994 <labelled>, sstran_1995 <labelled>,
## #   sstran_1996 <labelled>, sstran_1997 <labelled>, sstran_1998 <labelled>,
## #   sstran_1999 <labelled>, sstran_2000 <labelled>, sstran_2001 <labelled>,
## #   sstran_2002 <labelled>, sstran_2003 <labelled>, sstran_2004 <labelled>,
## #   sstran_2005 <labelled>, sstran_2006 <labelled>, sstran_2007 <labelled>,
## #   sstran_2008 <labelled>, sstran_2009 <labelled>, sstran_2010 <labelled>,
…
